…
**Answer** appropriate, associate, authority, available, colleague, encourage, experience, individual, opportunity, television are the highest number of vowels.

``` r
words %>%
  mutate(vowels = str_count(value, "[aeiouy]")) %>%
  mutate(prop_vowels = vowels /str_length(value)) %>%
  arrange(desc(prop_vowels))
```

    ## # A tibble: 980 x 3
    ##    value vowels prop_vowels
    ##    <chr>  <int>       <dbl>
    ##  1 a          1       1    
    ##  2 eye        3       1    
    ##  3 you        3       1    
    ##  4 area       3       0.75 
    ##  5 away       3       0.75 
    ##  6 easy       3       0.75 
    ##  7 idea       3       0.75 
    ##  8 okay       3       0.75 
    ##  9 year       3       0.75 
    ## 10 age        2       0.667
    ## # ... with 970 more rows
…
